%YAML 1.1
%TAG !u! tag:unity3d.com,2011:
--- !u!29 &1
OcclusionCullingSettings:
  m_ObjectHideFlags: 0
  serializedVersion: 2
  m_OcclusionBakeSettings:
    smallestOccluder: 5
    smallestHole: 0.25
    backfaceThreshold: 100
  m_SceneGUID: 00000000000000000000000000000000
  m_OcclusionCullingData: {fileID: 0}
--- !u!104 &2
RenderSettings:
  m_ObjectHideFlags: 0
  serializedVersion: 9
  m_Fog: 0
  m_FogColor: {r: 0.5, g: 0.5, b: 0.5, a: 1}
  m_FogMode: 3
  m_FogDensity: 0.01
  m_LinearFogStart: 0
  m_LinearFogEnd: 300
  m_AmbientSkyColor: {r: 0.212, g: 0.227, b: 0.259, a: 1}
  m_AmbientEquatorColor: {r: 0.114, g: 0.125, b: 0.133, a: 1}
  m_AmbientGroundColor: {r: 0.047, g: 0.043, b: 0.035, a: 1}
  m_AmbientIntensity: 1
  m_AmbientMode: 0
  m_SubtractiveShadowColor: {r: 0.42, g: 0.478, b: 0.627, a: 1}
  m_SkyboxMaterial: {fileID: 10304, guid: 0000000000000000f000000000000000, type: 0}
  m_HaloStrength: 0.5
  m_FlareStrength: 1
  m_FlareFadeSpeed: 3
  m_HaloTexture: {fileID: 0}
  m_SpotCookie: {fileID: 10001, guid: 0000000000000000e000000000000000, type: 0}
  m_DefaultReflectionMode: 0
  m_DefaultReflectionResolution: 128
  m_ReflectionBounces: 1
  m_ReflectionIntensity: 1
  m_CustomReflection: {fileID: 0}
  m_Sun: {fileID: 0}
  m_IndirectSpecularColor: {r: 0, g: 0, b: 0, a: 1}
  m_UseRadianceAmbientProbe: 0
--- !u!157 &3
LightmapSettings:
  m_ObjectHideFlags: 0
  serializedVersion: 12
  m_GIWorkflowMode: 0
  m_GISettings:
    serializedVersion: 2
    m_BounceScale: 1
    m_IndirectOutputScale: 1
    m_AlbedoBoost: 1
    m_EnvironmentLightingMode: 0
    m_EnableBakedLightmaps: 1
    m_EnableRealtimeLightmaps: 1
  m_LightmapEditorSettings:
    serializedVersion: 12
    m_Resolution: 2
    m_BakeResolution: 40
    m_AtlasSize: 1024
    m_AO: 0
    m_AOMaxDistance: 1
    m_CompAOExponent: 1
    m_CompAOExponentDirect: 0
    m_ExtractAmbientOcclusion: 0
    m_Padding: 2
    m_LightmapParameters: {fileID: 0}
    m_LightmapsBakeMode: 1
    m_TextureCompression: 1
    m_FinalGather: 0
    m_FinalGatherFiltering: 1
    m_FinalGatherRayCount: 256
    m_ReflectionCompression: 2
    m_MixedBakeMode: 1
    m_BakeBackend: 0
    m_PVRSampling: 1
    m_PVRDirectSampleCount: 32
    m_PVRSampleCount: 512
    m_PVRBounces: 2
    m_PVREnvironmentSampleCount: 512
    m_PVREnvironmentReferencePointCount: 2048
    m_PVRFilteringMode: 0
    m_PVRDenoiserTypeDirect: 0
    m_PVRDenoiserTypeIndirect: 0
    m_PVRDenoiserTypeAO: 0
    m_PVRFilterTypeDirect: 0
    m_PVRFilterTypeIndirect: 0
    m_PVRFilterTypeAO: 0
    m_PVREnvironmentMIS: 0
    m_PVRCulling: 1
    m_PVRFilteringGaussRadiusDirect: 1
    m_PVRFilteringGaussRadiusIndirect: 5
    m_PVRFilteringGaussRadiusAO: 2
    m_PVRFilteringAtrousPositionSigmaDirect: 0.5
    m_PVRFilteringAtrousPositionSigmaIndirect: 2
    m_PVRFilteringAtrousPositionSigmaAO: 1
    m_ExportTrainingData: 0
    m_TrainingDataDestination: TrainingData
    m_LightProbeSampleCountMultiplier: 4
  m_LightingDataAsset: {fileID: 0}
  m_LightingSettings: {fileID: 4890085278179872738, guid: 7a3948432a48cbe4abb741dd3b1e69b7, type: 2}
--- !u!196 &4
NavMeshSettings:
  serializedVersion: 2
  m_ObjectHideFlags: 0
  m_BuildSettings:
    serializedVersion: 2
    agentTypeID: 0
    agentRadius: 0.5
    agentHeight: 2
    agentSlope: 45
    agentClimb: 0.4
    ledgeDropHeight: 0
    maxJumpAcrossDistance: 0
    minRegionArea: 2
    manualCellSize: 0
    cellSize: 0.16666667
    manualTileSize: 0
    tileSize: 256
    accuratePlacement: 0
    maxJobWorkers: 0
    preserveTilesOutsideBounds: 0
    debug:
      m_Flags: 0
  m_NavMeshData: {fileID: 0}
--- !u!1001 &125414523
PrefabInstance:
  m_ObjectHideFlags: 0
  serializedVersion: 2
  m_Modification:
    m_TransformParent: {fileID: 0}
    m_Modifications:
    - target: {fileID: 4227917976121790, guid: 19156f3baa3e71f479bbf29aa6d08f72, type: 3}
      propertyPath: m_RootOrder
      value: 20
      objectReference: {fileID: 0}
    - target: {fileID: 4227917976121790, guid: 19156f3baa3e71f479bbf29aa6d08f72, type: 3}
      propertyPath: m_LocalPosition.x
      value: 0.583
      objectReference: {fileID: 0}
    - target: {fileID: 4227917976121790, guid: 19156f3baa3e71f479bbf29aa6d08f72, type: 3}
      propertyPath: m_LocalPosition.y
      value: 0
      objectReference: {fileID: 0}
    - target: {fileID: 4227917976121790, guid: 19156f3baa3e71f479bbf29aa6d08f72, type: 3}
      propertyPath: m_LocalPosition.z
      value: 0
      objectReference: {fileID: 0}
    - target: {fileID: 4227917976121790, guid: 19156f3baa3e71f479bbf29aa6d08f72, type: 3}
      propertyPath: m_LocalRotation.w
      value: 1
      objectReference: {fileID: 0}
    - target: {fileID: 4227917976121790, guid: 19156f3baa3e71f479bbf29aa6d08f72, type: 3}
      propertyPath: m_LocalRotation.x
      value: 0
      objectReference: {fileID: 0}
    - target: {fileID: 4227917976121790, guid: 19156f3baa3e71f479bbf29aa6d08f72, type: 3}
      propertyPath: m_LocalRotation.y
      value: 0
      objectReference: {fileID: 0}
    - target: {fileID: 4227917976121790, guid: 19156f3baa3e71f479bbf29aa6d08f72, type: 3}
      propertyPath: m_LocalRotation.z
      value: 0
      objectReference: {fileID: 0}
    m_RemovedComponents: []
  m_SourcePrefab: {fileID: 100100000, guid: 19156f3baa3e71f479bbf29aa6d08f72, type: 3}
--- !u!1001 &137327268
PrefabInstance:
  m_ObjectHideFlags: 0
  serializedVersion: 2
  m_Modification:
    m_TransformParent: {fileID: 0}
    m_Modifications:
    - target: {fileID: 1747736825038084, guid: 271342a706fc64842ae387e3e5d5bcc8, type: 3}
      propertyPath: m_IsActive
      value: 1
      objectReference: {fileID: 0}
    - target: {fileID: 4586334186651316, guid: 271342a706fc64842ae387e3e5d5bcc8, type: 3}
      propertyPath: m_RootOrder
      value: 10
      objectReference: {fileID: 0}
    - target: {fileID: 4586334186651316, guid: 271342a706fc64842ae387e3e5d5bcc8, type: 3}
      propertyPath: m_LocalPosition.x
      value: -0.344
      objectReference: {fileID: 0}
    - target: {fileID: 4586334186651316, guid: 271342a706fc64842ae387e3e5d5bcc8, type: 3}
      propertyPath: m_LocalPosition.y
      value: 0
      objectReference: {fileID: 0}
    - target: {fileID: 4586334186651316, guid: 271342a706fc64842ae387e3e5d5bcc8, type: 3}
      propertyPath: m_LocalPosition.z
      value: 0
      objectReference: {fileID: 0}
    - target: {fileID: 4586334186651316, guid: 271342a706fc64842ae387e3e5d5bcc8, type: 3}
      propertyPath: m_LocalRotation.w
      value: 1
      objectReference: {fileID: 0}
    - target: {fileID: 4586334186651316, guid: 271342a706fc64842ae387e3e5d5bcc8, type: 3}
      propertyPath: m_LocalRotation.x
      value: 0
      objectReference: {fileID: 0}
    - target: {fileID: 4586334186651316, guid: 271342a706fc64842ae387e3e5d5bcc8, type: 3}
      propertyPath: m_LocalRotation.y
      value: 0
      objectReference: {fileID: 0}
    - target: {fileID: 4586334186651316, guid: 271342a706fc64842ae387e3e5d5bcc8, type: 3}
      propertyPath: m_LocalRotation.z
      value: 0
      objectReference: {fileID: 0}
    m_RemovedComponents: []
  m_SourcePrefab: {fileID: 100100000, guid: 271342a706fc64842ae387e3e5d5bcc8, type: 3}
--- !u!1001 &245483934
PrefabInstance:
  m_ObjectHideFlags: 0
  serializedVersion: 2
  m_Modification:
    m_TransformParent: {fileID: 0}
    m_Modifications:
    - target: {fileID: 4313353733334626, guid: a40c0e85ffc25194492d65c4676ab357, type: 3}
      propertyPath: m_RootOrder
      value: 18
      objectReference: {fileID: 0}
    - target: {fileID: 4313353733334626, guid: a40c0e85ffc25194492d65c4676ab357, type: 3}
      propertyPath: m_LocalPosition.x
      value: 0.404
      objectReference: {fileID: 0}
    - target: {fileID: 4313353733334626, guid: a40c0e85ffc25194492d65c4676ab357, type: 3}
      propertyPath: m_LocalPosition.y
      value: 0
      objectReference: {fileID: 0}
    - target: {fileID: 4313353733334626, guid: a40c0e85ffc25194492d65c4676ab357, type: 3}
      propertyPath: m_LocalPosition.z
      value: 0
      objectReference: {fileID: 0}
    - target: {fileID: 4313353733334626, guid: a40c0e85ffc25194492d65c4676ab357, type: 3}
      propertyPath: m_LocalRotation.w
      value: 1
      objectReference: {fileID: 0}
    - target: {fileID: 4313353733334626, guid: a40c0e85ffc25194492d65c4676ab357, type: 3}
      propertyPath: m_LocalRotation.x
      value: 0
      objectReference: {fileID: 0}
    - target: {fileID: 4313353733334626, guid: a40c0e85ffc25194492d65c4676ab357, type: 3}
      propertyPath: m_LocalRotation.y
      value: 0
      objectReference: {fileID: 0}
    - target: {fileID: 4313353733334626, guid: a40c0e85ffc25194492d65c4676ab357, type: 3}
      propertyPath: m_LocalRotation.z
      value: 0
      objectReference: {fileID: 0}
    m_RemovedComponents: []
  m_SourcePrefab: {fileID: 100100000, guid: a40c0e85ffc25194492d65c4676ab357, type: 3}
--- !u!1001 &262489792
PrefabInstance:
  m_ObjectHideFlags: 0
  serializedVersion: 2
  m_Modification:
    m_TransformParent: {fileID: 0}
    m_Modifications:
    - target: {fileID: 4911067588350596, guid: 9a496c17c448bc24284cfbb701a34802, type: 3}
      propertyPath: m_RootOrder
      value: 25
      objectReference: {fileID: 0}
    - target: {fileID: 4911067588350596, guid: 9a496c17c448bc24284cfbb701a34802, type: 3}
      propertyPath: m_LocalPosition.x
      value: 1.027
      objectReference: {fileID: 0}
    - target: {fileID: 4911067588350596, guid: 9a496c17c448bc24284cfbb701a34802, type: 3}
      propertyPath: m_LocalPosition.y
      value: 0
      objectReference: {fileID: 0}
    - target: {fileID: 4911067588350596, guid: 9a496c17c448bc24284cfbb701a34802, type: 3}
      propertyPath: m_LocalPosition.z
      value: 0
      objectReference: {fileID: 0}
    - target: {fileID: 4911067588350596, guid: 9a496c17c448bc24284cfbb701a34802, type: 3}
      propertyPath: m_LocalRotation.w
      value: 1
      objectReference: {fileID: 0}
    - target: {fileID: 4911067588350596, guid: 9a496c17c448bc24284cfbb701a34802, type: 3}
      propertyPath: m_LocalRotation.x
      value: 0
      objectReference: {fileID: 0}
    - target: {fileID: 4911067588350596, guid: 9a496c17c448bc24284cfbb701a34802, type: 3}
      propertyPath: m_LocalRotation.y
      value: 0
      objectReference: {fileID: 0}
    - target: {fileID: 4911067588350596, guid: 9a496c17c448bc24284cfbb701a34802, type: 3}
      propertyPath: m_LocalRotation.z
      value: 0
      objectReference: {fileID: 0}
    m_RemovedComponents: []
  m_SourcePrefab: {fileID: 100100000, guid: 9a496c17c448bc24284cfbb701a34802, type: 3}
--- !u!1001 &314675091
PrefabInstance:
  m_ObjectHideFlags: 0
  serializedVersion: 2
  m_Modification:
    m_TransformParent: {fileID: 0}
    m_Modifications:
    - target: {fileID: 1386311800344918, guid: 63b7797f8b252df419e5c409c8b1b290, type: 3}
      propertyPath: m_IsActive
      value: 1
      objectReference: {fileID: 0}
    - target: {fileID: 4115379579654552, guid: 63b7797f8b252df419e5c409c8b1b290, type: 3}
      propertyPath: m_RootOrder
      value: 9
      objectReference: {fileID: 0}
    - target: {fileID: 4115379579654552, guid: 63b7797f8b252df419e5c409c8b1b290, type: 3}
      propertyPath: m_LocalPosition.x
      value: -0.424
      objectReference: {fileID: 0}
    - target: {fileID: 4115379579654552, guid: 63b7797f8b252df419e5c409c8b1b290, type: 3}
      propertyPath: m_LocalPosition.y
      value: 0
      objectReference: {fileID: 0}
    - target: {fileID: 4115379579654552, guid: 63b7797f8b252df419e5c409c8b1b290, type: 3}
      propertyPath: m_LocalPosition.z
      value: 0
      objectReference: {fileID: 0}
    - target: {fileID: 4115379579654552, guid: 63b7797f8b252df419e5c409c8b1b290, type: 3}
      propertyPath: m_LocalRotation.w
      value: 1
      objectReference: {fileID: 0}
    - target: {fileID: 4115379579654552, guid: 63b7797f8b252df419e5c409c8b1b290, type: 3}
      propertyPath: m_LocalRotation.x
      value: 0
      objectReference: {fileID: 0}
    - target: {fileID: 4115379579654552, guid: 63b7797f8b252df419e5c409c8b1b290, type: 3}
      propertyPath: m_LocalRotation.y
      value: 0
      objectReference: {fileID: 0}
    - target: {fileID: 4115379579654552, guid: 63b7797f8b252df419e5c409c8b1b290, type: 3}
      propertyPath: m_LocalRotation.z
      value: 0
      objectReference: {fileID: 0}
    m_RemovedComponents: []
  m_SourcePrefab: {fileID: 100100000, guid: 63b7797f8b252df419e5c409c8b1b290, type: 3}
--- !u!1001 &358594873
PrefabInstance:
  m_ObjectHideFlags: 0
  serializedVersion: 2
  m_Modification:
    m_TransformParent: {fileID: 0}
    m_Modifications:
    - target: {fileID: 4015067223290786, guid: b8565f1c512d09842b4c4a528e1d0603, type: 3}
      propertyPath: m_RootOrder
      value: 27
      objectReference: {fileID: 0}
    - target: {fileID: 4015067223290786, guid: b8565f1c512d09842b4c4a528e1d0603, type: 3}
      propertyPath: m_LocalPosition.x
      value: 1.199
      objectReference: {fileID: 0}
    - target: {fileID: 4015067223290786, guid: b8565f1c512d09842b4c4a528e1d0603, type: 3}
      propertyPath: m_LocalPosition.y
      value: 0
      objectReference: {fileID: 0}
    - target: {fileID: 4015067223290786, guid: b8565f1c512d09842b4c4a528e1d0603, type: 3}
      propertyPath: m_LocalPosition.z
      value: 0
      objectReference: {fileID: 0}
    - target: {fileID: 4015067223290786, guid: b8565f1c512d09842b4c4a528e1d0603, type: 3}
      propertyPath: m_LocalRotation.w
      value: 1
      objectReference: {fileID: 0}
    - target: {fileID: 4015067223290786, guid: b8565f1c512d09842b4c4a528e1d0603, type: 3}
      propertyPath: m_LocalRotation.x
      value: 0
      objectReference: {fileID: 0}
    - target: {fileID: 4015067223290786, guid: b8565f1c512d09842b4c4a528e1d0603, type: 3}
      propertyPath: m_LocalRotation.y
      value: 0
      objectReference: {fileID: 0}
    - target: {fileID: 4015067223290786, guid: b8565f1c512d09842b4c4a528e1d0603, type: 3}
      propertyPath: m_LocalRotation.z
      value: 0
      objectReference: {fileID: 0}
    m_RemovedComponents: []
  m_SourcePrefab: {fileID: 100100000, guid: b8565f1c512d09842b4c4a528e1d0603, type: 3}
--- !u!1001 &369174675
PrefabInstance:
  m_ObjectHideFlags: 0
  serializedVersion: 2
  m_Modification:
    m_TransformParent: {fileID: 0}
    m_Modifications:
    - target: {fileID: 1331529279420204, guid: 94fb20e1620258e418f7b0d13d1cac62, type: 3}
      propertyPath: m_IsActive
      value: 1
      objectReference: {fileID: 0}
    - target: {fileID: 4938673785642544, guid: 94fb20e1620258e418f7b0d13d1cac62, type: 3}
      propertyPath: m_RootOrder
      value: 7
      objectReference: {fileID: 0}
    - target: {fileID: 4938673785642544, guid: 94fb20e1620258e418f7b0d13d1cac62, type: 3}
      propertyPath: m_LocalPosition.x
      value: -0.584
      objectReference: {fileID: 0}
    - target: {fileID: 4938673785642544, guid: 94fb20e1620258e418f7b0d13d1cac62, type: 3}
      propertyPath: m_LocalPosition.y
      value: 0
      objectReference: {fileID: 0}
    - target: {fileID: 4938673785642544, guid: 94fb20e1620258e418f7b0d13d1cac62, type: 3}
      propertyPath: m_LocalPosition.z
      value: 0
      objectReference: {fileID: 0}
    - target: {fileID: 4938673785642544, guid: 94fb20e1620258e418f7b0d13d1cac62, type: 3}
      propertyPath: m_LocalRotation.w
      value: 1
      objectReference: {fileID: 0}
    - target: {fileID: 4938673785642544, guid: 94fb20e1620258e418f7b0d13d1cac62, type: 3}
      propertyPath: m_LocalRotation.x
      value: 0
      objectReference: {fileID: 0}
    - target: {fileID: 4938673785642544, guid: 94fb20e1620258e418f7b0d13d1cac62, type: 3}
      propertyPath: m_LocalRotation.y
      value: 0
      objectReference: {fileID: 0}
    - target: {fileID: 4938673785642544, guid: 94fb20e1620258e418f7b0d13d1cac62, type: 3}
      propertyPath: m_LocalRotation.z
      value: 0
      objectReference: {fileID: 0}
    m_RemovedComponents: []
  m_SourcePrefab: {fileID: 100100000, guid: 94fb20e1620258e418f7b0d13d1cac62, type: 3}
--- !u!1 &428920369
GameObject:
  m_ObjectHideFlags: 0
  m_CorrespondingSourceObject: {fileID: 0}
  m_PrefabInstance: {fileID: 0}
  m_PrefabAsset: {fileID: 0}
  serializedVersion: 6
  m_Component:
  - component: {fileID: 428920374}
  - component: {fileID: 428920373}
  - component: {fileID: 428920371}
  - component: {fileID: 428920370}
  m_Layer: 0
  m_Name: Main Camera
  m_TagString: MainCamera
  m_Icon: {fileID: 0}
  m_NavMeshLayer: 0
  m_StaticEditorFlags: 0
  m_IsActive: 1
--- !u!81 &428920370
AudioListener:
  m_ObjectHideFlags: 0
  m_CorrespondingSourceObject: {fileID: 0}
  m_PrefabInstance: {fileID: 0}
  m_PrefabAsset: {fileID: 0}
  m_GameObject: {fileID: 428920369}
  m_Enabled: 1
--- !u!124 &428920371
Behaviour:
  m_ObjectHideFlags: 0
  m_CorrespondingSourceObject: {fileID: 0}
  m_PrefabInstance: {fileID: 0}
  m_PrefabAsset: {fileID: 0}
  m_GameObject: {fileID: 428920369}
  m_Enabled: 1
--- !u!20 &428920373
Camera:
  m_ObjectHideFlags: 0
  m_CorrespondingSourceObject: {fileID: 0}
  m_PrefabInstance: {fileID: 0}
  m_PrefabAsset: {fileID: 0}
  m_GameObject: {fileID: 428920369}
  m_Enabled: 1
  serializedVersion: 2
  m_ClearFlags: 2
  m_BackGroundColor: {r: 0.25, g: 0.25, b: 0.25, a: 0}
  m_projectionMatrixMode: 1
  m_GateFitMode: 2
  m_FOVAxisMode: 0
  m_SensorSize: {x: 36, y: 24}
  m_LensShift: {x: 0, y: 0}
  m_FocalLength: 50
  m_NormalizedViewPortRect:
    serializedVersion: 2
    x: 0
    y: 0
    width: 1
    height: 1
  near clip plane: 0.3
  far clip plane: 1000
  field of view: 60
  orthographic: 0
  orthographic size: 5
  m_Depth: -1
  m_CullingMask:
    serializedVersion: 2
    m_Bits: 4294967295
  m_RenderingPath: -1
  m_TargetTexture: {fileID: 0}
  m_TargetDisplay: 0
  m_TargetEye: 3
  m_HDR: 0
  m_AllowMSAA: 1
  m_AllowDynamicResolution: 0
  m_ForceIntoRT: 0
  m_OcclusionCulling: 1
  m_StereoConvergence: 10
  m_StereoSeparation: 0.022
--- !u!4 &428920374
Transform:
  m_ObjectHideFlags: 0
  m_CorrespondingSourceObject: {fileID: 0}
  m_PrefabInstance: {fileID: 0}
  m_PrefabAsset: {fileID: 0}
  m_GameObject: {fileID: 428920369}
  m_LocalRotation: {x: 0, y: 0, z: 0, w: 1}
  m_LocalPosition: {x: 0, y: 0.453, z: -1.037}
  m_LocalScale: {x: 1, y: 1, z: 1}
  m_Children: []
  m_Father: {fileID: 0}
  m_RootOrder: 0
  m_LocalEulerAnglesHint: {x: 0, y: 0, z: 0}
--- !u!1001 &529892987
PrefabInstance:
  m_ObjectHideFlags: 0
  serializedVersion: 2
  m_Modification:
    m_TransformParent: {fileID: 0}
    m_Modifications:
    - target: {fileID: 4093408953815162, guid: 860ade0594eaba94d888d4073f07a490, type: 3}
      propertyPath: m_RootOrder
      value: 15
      objectReference: {fileID: 0}
    - target: {fileID: 4093408953815162, guid: 860ade0594eaba94d888d4073f07a490, type: 3}
      propertyPath: m_LocalPosition.x
      value: 0.157
      objectReference: {fileID: 0}
    - target: {fileID: 4093408953815162, guid: 860ade0594eaba94d888d4073f07a490, type: 3}
      propertyPath: m_LocalPosition.y
      value: 0
      objectReference: {fileID: 0}
    - target: {fileID: 4093408953815162, guid: 860ade0594eaba94d888d4073f07a490, type: 3}
      propertyPath: m_LocalPosition.z
      value: 0
      objectReference: {fileID: 0}
    - target: {fileID: 4093408953815162, guid: 860ade0594eaba94d888d4073f07a490, type: 3}
      propertyPath: m_LocalRotation.w
      value: 1
      objectReference: {fileID: 0}
    - target: {fileID: 4093408953815162, guid: 860ade0594eaba94d888d4073f07a490, type: 3}
      propertyPath: m_LocalRotation.x
      value: 0
      objectReference: {fileID: 0}
    - target: {fileID: 4093408953815162, guid: 860ade0594eaba94d888d4073f07a490, type: 3}
      propertyPath: m_LocalRotation.y
      value: 0
      objectReference: {fileID: 0}
    - target: {fileID: 4093408953815162, guid: 860ade0594eaba94d888d4073f07a490, type: 3}
      propertyPath: m_LocalRotation.z
      value: 0
      objectReference: {fileID: 0}
    m_RemovedComponents: []
  m_SourcePrefab: {fileID: 100100000, guid: 860ade0594eaba94d888d4073f07a490, type: 3}
--- !u!1001 &603020441
PrefabInstance:
  m_ObjectHideFlags: 0
  serializedVersion: 2
  m_Modification:
    m_TransformParent: {fileID: 0}
    m_Modifications:
    - target: {fileID: 4300704233199116, guid: dfa437938e5b73f46baaf326c46ad1d9, type: 3}
      propertyPath: m_RootOrder
      value: 16
      objectReference: {fileID: 0}
    - target: {fileID: 4300704233199116, guid: dfa437938e5b73f46baaf326c46ad1d9, type: 3}
      propertyPath: m_LocalPosition.x
      value: 0.237
      objectReference: {fileID: 0}
    - target: {fileID: 4300704233199116, guid: dfa437938e5b73f46baaf326c46ad1d9, type: 3}
      propertyPath: m_LocalPosition.y
      value: 0
      objectReference: {fileID: 0}
    - target: {fileID: 4300704233199116, guid: dfa437938e5b73f46baaf326c46ad1d9, type: 3}
      propertyPath: m_LocalPosition.z
      value: 0
      objectReference: {fileID: 0}
    - target: {fileID: 4300704233199116, guid: dfa437938e5b73f46baaf326c46ad1d9, type: 3}
      propertyPath: m_LocalRotation.w
      value: 1
      objectReference: {fileID: 0}
    - target: {fileID: 4300704233199116, guid: dfa437938e5b73f46baaf326c46ad1d9, type: 3}
      propertyPath: m_LocalRotation.x
      value: 0
      objectReference: {fileID: 0}
    - target: {fileID: 4300704233199116, guid: dfa437938e5b73f46baaf326c46ad1d9, type: 3}
      propertyPath: m_LocalRotation.y
      value: 0
      objectReference: {fileID: 0}
    - target: {fileID: 4300704233199116, guid: dfa437938e5b73f46baaf326c46ad1d9, type: 3}
      propertyPath: m_LocalRotation.z
      value: 0
      objectReference: {fileID: 0}
    m_RemovedComponents: []
  m_SourcePrefab: {fileID: 100100000, guid: dfa437938e5b73f46baaf326c46ad1d9, type: 3}
--- !u!1001 &875943994
PrefabInstance:
  m_ObjectHideFlags: 0
  serializedVersion: 2
  m_Modification:
    m_TransformParent: {fileID: 0}
    m_Modifications:
    - target: {fileID: 1138089077365102, guid: b2c2eaa77adbe704690e52a50768f2a8, type: 3}
      propertyPath: m_IsActive
      value: 1
      objectReference: {fileID: 0}
    - target: {fileID: 4503458550929186, guid: b2c2eaa77adbe704690e52a50768f2a8, type: 3}
      propertyPath: m_RootOrder
      value: 13
      objectReference: {fileID: 0}
    - target: {fileID: 4503458550929186, guid: b2c2eaa77adbe704690e52a50768f2a8, type: 3}
      propertyPath: m_LocalPosition.x
      value: -0.104
      objectReference: {fileID: 0}
    - target: {fileID: 4503458550929186, guid: b2c2eaa77adbe704690e52a50768f2a8, type: 3}
      propertyPath: m_LocalPosition.y
      value: 0
      objectReference: {fileID: 0}
    - target: {fileID: 4503458550929186, guid: b2c2eaa77adbe704690e52a50768f2a8, type: 3}
      propertyPath: m_LocalPosition.z
      value: 0
      objectReference: {fileID: 0}
    - target: {fileID: 4503458550929186, guid: b2c2eaa77adbe704690e52a50768f2a8, type: 3}
      propertyPath: m_LocalRotation.w
      value: 1
      objectReference: {fileID: 0}
    - target: {fileID: 4503458550929186, guid: b2c2eaa77adbe704690e52a50768f2a8, type: 3}
      propertyPath: m_LocalRotation.x
      value: 0
      objectReference: {fileID: 0}
    - target: {fileID: 4503458550929186, guid: b2c2eaa77adbe704690e52a50768f2a8, type: 3}
      propertyPath: m_LocalRotation.y
      value: 0
      objectReference: {fileID: 0}
    - target: {fileID: 4503458550929186, guid: b2c2eaa77adbe704690e52a50768f2a8, type: 3}
      propertyPath: m_LocalRotation.z
      value: 0
      objectReference: {fileID: 0}
    m_RemovedComponents: []
  m_SourcePrefab: {fileID: 100100000, guid: b2c2eaa77adbe704690e52a50768f2a8, type: 3}
--- !u!1001 &959990190
PrefabInstance:
  m_ObjectHideFlags: 0
  serializedVersion: 2
  m_Modification:
    m_TransformParent: {fileID: 0}
    m_Modifications:
    - target: {fileID: 4282186308560312, guid: aaaa0425fc80efb429f1069683d5c290, type: 3}
      propertyPath: m_RootOrder
      value: 26
      objectReference: {fileID: 0}
    - target: {fileID: 4282186308560312, guid: aaaa0425fc80efb429f1069683d5c290, type: 3}
      propertyPath: m_LocalPosition.x
      value: 1.114
      objectReference: {fileID: 0}
    - target: {fileID: 4282186308560312, guid: aaaa0425fc80efb429f1069683d5c290, type: 3}
      propertyPath: m_LocalPosition.y
      value: 0
      objectReference: {fileID: 0}
    - target: {fileID: 4282186308560312, guid: aaaa0425fc80efb429f1069683d5c290, type: 3}
      propertyPath: m_LocalPosition.z
      value: 0
      objectReference: {fileID: 0}
    - target: {fileID: 4282186308560312, guid: aaaa0425fc80efb429f1069683d5c290, type: 3}
      propertyPath: m_LocalRotation.w
      value: 1
      objectReference: {fileID: 0}
    - target: {fileID: 4282186308560312, guid: aaaa0425fc80efb429f1069683d5c290, type: 3}
      propertyPath: m_LocalRotation.x
      value: 0
      objectReference: {fileID: 0}
    - target: {fileID: 4282186308560312, guid: aaaa0425fc80efb429f1069683d5c290, type: 3}
      propertyPath: m_LocalRotation.y
      value: 0
      objectReference: {fileID: 0}
    - target: {fileID: 4282186308560312, guid: aaaa0425fc80efb429f1069683d5c290, type: 3}
      propertyPath: m_LocalRotation.z
      value: 0
      objectReference: {fileID: 0}
    m_RemovedComponents: []
  m_SourcePrefab: {fileID: 100100000, guid: aaaa0425fc80efb429f1069683d5c290, type: 3}
--- !u!1001 &995673752
PrefabInstance:
  m_ObjectHideFlags: 0
  serializedVersion: 2
  m_Modification:
    m_TransformParent: {fileID: 0}
    m_Modifications:
    - target: {fileID: 4828015431789788, guid: 1f7f3715ebdd1cf43950a16ede2dc684, type: 3}
      propertyPath: m_RootOrder
      value: 23
      objectReference: {fileID: 0}
    - target: {fileID: 4828015431789788, guid: 1f7f3715ebdd1cf43950a16ede2dc684, type: 3}
      propertyPath: m_LocalPosition.x
      value: 0.843
      objectReference: {fileID: 0}
    - target: {fileID: 4828015431789788, guid: 1f7f3715ebdd1cf43950a16ede2dc684, type: 3}
      propertyPath: m_LocalPosition.y
      value: 0
      objectReference: {fileID: 0}
    - target: {fileID: 4828015431789788, guid: 1f7f3715ebdd1cf43950a16ede2dc684, type: 3}
      propertyPath: m_LocalPosition.z
      value: 0
      objectReference: {fileID: 0}
    - target: {fileID: 4828015431789788, guid: 1f7f3715ebdd1cf43950a16ede2dc684, type: 3}
      propertyPath: m_LocalRotation.w
      value: 1
      objectReference: {fileID: 0}
    - target: {fileID: 4828015431789788, guid: 1f7f3715ebdd1cf43950a16ede2dc684, type: 3}
      propertyPath: m_LocalRotation.x
      value: 0
      objectReference: {fileID: 0}
    - target: {fileID: 4828015431789788, guid: 1f7f3715ebdd1cf43950a16ede2dc684, type: 3}
      propertyPath: m_LocalRotation.y
      value: 0
      objectReference: {fileID: 0}
    - target: {fileID: 4828015431789788, guid: 1f7f3715ebdd1cf43950a16ede2dc684, type: 3}
      propertyPath: m_LocalRotation.z
      value: 0
      objectReference: {fileID: 0}
    m_RemovedComponents: []
  m_SourcePrefab: {fileID: 100100000, guid: 1f7f3715ebdd1cf43950a16ede2dc684, type: 3}
--- !u!1 &1001062084
GameObject:
  m_ObjectHideFlags: 0
  m_CorrespondingSourceObject: {fileID: 0}
  m_PrefabInstance: {fileID: 0}
  m_PrefabAsset: {fileID: 0}
  serializedVersion: 6
  m_Component:
  - component: {fileID: 1001062086}
  - component: {fileID: 1001062085}
  m_Layer: 0
  m_Name: Directional Light
  m_TagString: Untagged
  m_Icon: {fileID: 0}
  m_NavMeshLayer: 0
  m_StaticEditorFlags: 0
  m_IsActive: 1
--- !u!108 &1001062085
Light:
  m_ObjectHideFlags: 0
  m_CorrespondingSourceObject: {fileID: 0}
  m_PrefabInstance: {fileID: 0}
  m_PrefabAsset: {fileID: 0}
  m_GameObject: {fileID: 1001062084}
  m_Enabled: 1
  serializedVersion: 10
  m_Type: 1
  m_Shape: 0
  m_Color: {r: 1, g: 0.95686275, b: 0.8392157, a: 1}
  m_Intensity: 1
  m_Range: 10
  m_SpotAngle: 30
  m_InnerSpotAngle: 21.80208
  m_CookieSize: 10
  m_Shadows:
    m_Type: 2
    m_Resolution: -1
    m_CustomResolution: -1
    m_Strength: 1
    m_Bias: 0.05
    m_NormalBias: 0.4
    m_NearPlane: 0.2
    m_CullingMatrixOverride:
      e00: 1
      e01: 0
      e02: 0
      e03: 0
      e10: 0
      e11: 1
      e12: 0
      e13: 0
      e20: 0
      e21: 0
      e22: 1
      e23: 0
      e30: 0
      e31: 0
      e32: 0
      e33: 1
    m_UseCullingMatrixOverride: 0
  m_Cookie: {fileID: 0}
  m_DrawHalo: 0
  m_Flare: {fileID: 0}
  m_RenderMode: 0
  m_CullingMask:
    serializedVersion: 2
    m_Bits: 4294967295
  m_RenderingLayerMask: 1
  m_Lightmapping: 4
  m_LightShadowCasterMode: 0
  m_AreaSize: {x: 1, y: 1}
  m_BounceIntensity: 1
  m_ColorTemperature: 6570
  m_UseColorTemperature: 0
  m_BoundingSphereOverride: {x: 0, y: 0, z: 0, w: 0}
  m_UseBoundingSphereOverride: 0
  m_UseViewFrustumForShadowCasterCull: 1
  m_ShadowRadius: 0
  m_ShadowAngle: 0
--- !u!4 &1001062086
Transform:
  m_ObjectHideFlags: 0
  m_CorrespondingSourceObject: {fileID: 0}
  m_PrefabInstance: {fileID: 0}
  m_PrefabAsset: {fileID: 0}
  m_GameObject: {fileID: 1001062084}
  m_LocalRotation: {x: 0.06505052, y: -0.03385809, z: 0.027065564, w: 0.99694014}
  m_LocalPosition: {x: 0, y: 3, z: 0}
  m_LocalScale: {x: 1, y: 1, z: 1}
  m_Children: []
  m_Father: {fileID: 0}
  m_RootOrder: 1
  m_LocalEulerAnglesHint: {x: 7.5580006, y: -3.7010002, z: 2.8660002}
--- !u!1001 &1079418212
PrefabInstance:
  m_ObjectHideFlags: 0
  serializedVersion: 2
  m_Modification:
    m_TransformParent: {fileID: 0}
    m_Modifications:
    - target: {fileID: 4429846058053334, guid: 6064a4483ddc93a42814b96a88d087e3, type: 3}
      propertyPath: m_RootOrder
      value: 22
      objectReference: {fileID: 0}
    - target: {fileID: 4429846058053334, guid: 6064a4483ddc93a42814b96a88d087e3, type: 3}
      propertyPath: m_LocalPosition.x
      value: 0.756
      objectReference: {fileID: 0}
    - target: {fileID: 4429846058053334, guid: 6064a4483ddc93a42814b96a88d087e3, type: 3}
      propertyPath: m_LocalPosition.y
      value: 0
      objectReference: {fileID: 0}
    - target: {fileID: 4429846058053334, guid: 6064a4483ddc93a42814b96a88d087e3, type: 3}
      propertyPath: m_LocalPosition.z
      value: 0
      objectReference: {fileID: 0}
    - target: {fileID: 4429846058053334, guid: 6064a4483ddc93a42814b96a88d087e3, type: 3}
      propertyPath: m_LocalRotation.w
      value: 1
      objectReference: {fileID: 0}
    - target: {fileID: 4429846058053334, guid: 6064a4483ddc93a42814b96a88d087e3, type: 3}
      propertyPath: m_LocalRotation.x
      value: 0
      objectReference: {fileID: 0}
    - target: {fileID: 4429846058053334, guid: 6064a4483ddc93a42814b96a88d087e3, type: 3}
      propertyPath: m_LocalRotation.y
      value: 0
      objectReference: {fileID: 0}
    - target: {fileID: 4429846058053334, guid: 6064a4483ddc93a42814b96a88d087e3, type: 3}
      propertyPath: m_LocalRotation.z
      value: 0
      objectReference: {fileID: 0}
    m_RemovedComponents: []
  m_SourcePrefab: {fileID: 100100000, guid: 6064a4483ddc93a42814b96a88d087e3, type: 3}
--- !u!1001 &1230331137
PrefabInstance:
  m_ObjectHideFlags: 0
  serializedVersion: 2
  m_Modification:
    m_TransformParent: {fileID: 0}
    m_Modifications:
    - target: {fileID: 1602661717803204, guid: 903c43007ef77274bad19ed037b02892, type: 3}
      propertyPath: m_IsActive
      value: 1
      objectReference: {fileID: 0}
    - target: {fileID: 4854532787671656, guid: 903c43007ef77274bad19ed037b02892, type: 3}
      propertyPath: m_RootOrder
      value: 2
      objectReference: {fileID: 0}
    - target: {fileID: 4854532787671656, guid: 903c43007ef77274bad19ed037b02892, type: 3}
      propertyPath: m_LocalPosition.x
      value: -0.984
      objectReference: {fileID: 0}
    - target: {fileID: 4854532787671656, guid: 903c43007ef77274bad19ed037b02892, type: 3}
      propertyPath: m_LocalPosition.y
      value: 0
      objectReference: {fileID: 0}
    - target: {fileID: 4854532787671656, guid: 903c43007ef77274bad19ed037b02892, type: 3}
      propertyPath: m_LocalPosition.z
      value: 0
      objectReference: {fileID: 0}
    - target: {fileID: 4854532787671656, guid: 903c43007ef77274bad19ed037b02892, type: 3}
      propertyPath: m_LocalRotation.w
      value: 1
      objectReference: {fileID: 0}
    - target: {fileID: 4854532787671656, guid: 903c43007ef77274bad19ed037b02892, type: 3}
      propertyPath: m_LocalRotation.x
      value: 0
      objectReference: {fileID: 0}
    - target: {fileID: 4854532787671656, guid: 903c43007ef77274bad19ed037b02892, type: 3}
      propertyPath: m_LocalRotation.y
      value: 0
      objectReference: {fileID: 0}
    - target: {fileID: 4854532787671656, guid: 903c43007ef77274bad19ed037b02892, type: 3}
      propertyPath: m_LocalRotation.z
      value: 0
      objectReference: {fileID: 0}
    m_RemovedComponents: []
  m_SourcePrefab: {fileID: 100100000, guid: 903c43007ef77274bad19ed037b02892, type: 3}
--- !u!1001 &1339425926
PrefabInstance:
  m_ObjectHideFlags: 0
  serializedVersion: 2
  m_Modification:
    m_TransformParent: {fileID: 0}
    m_Modifications:
    - target: {fileID: 1659455743989630, guid: 6e75424edaedeb6419c9dd3da010b7cf, type: 3}
      propertyPath: m_IsActive
      value: 1
      objectReference: {fileID: 0}
    - target: {fileID: 4108717056845458, guid: 6e75424edaedeb6419c9dd3da010b7cf, type: 3}
      propertyPath: m_RootOrder
      value: 11
      objectReference: {fileID: 0}
    - target: {fileID: 4108717056845458, guid: 6e75424edaedeb6419c9dd3da010b7cf, type: 3}
      propertyPath: m_LocalPosition.x
      value: -0.264
      objectReference: {fileID: 0}
    - target: {fileID: 4108717056845458, guid: 6e75424edaedeb6419c9dd3da010b7cf, type: 3}
      propertyPath: m_LocalPosition.y
      value: 0
      objectReference: {fileID: 0}
    - target: {fileID: 4108717056845458, guid: 6e75424edaedeb6419c9dd3da010b7cf, type: 3}
      propertyPath: m_LocalPosition.z
      value: 0
      objectReference: {fileID: 0}
    - target: {fileID: 4108717056845458, guid: 6e75424edaedeb6419c9dd3da010b7cf, type: 3}
      propertyPath: m_LocalRotation.w
      value: 1
      objectReference: {fileID: 0}
    - target: {fileID: 4108717056845458, guid: 6e75424edaedeb6419c9dd3da010b7cf, type: 3}
      propertyPath: m_LocalRotation.x
      value: 0
      objectReference: {fileID: 0}
    - target: {fileID: 4108717056845458, guid: 6e75424edaedeb6419c9dd3da010b7cf, type: 3}
      propertyPath: m_LocalRotation.y
      value: 0
      objectReference: {fileID: 0}
    - target: {fileID: 4108717056845458, guid: 6e75424edaedeb6419c9dd3da010b7cf, type: 3}
      propertyPath: m_LocalRotation.z
      value: 0
      objectReference: {fileID: 0}
    m_RemovedComponents: []
  m_SourcePrefab: {fileID: 100100000, guid: 6e75424edaedeb6419c9dd3da010b7cf, type: 3}
--- !u!1001 &1395010484
PrefabInstance:
  m_ObjectHideFlags: 0
  serializedVersion: 2
  m_Modification:
    m_TransformParent: {fileID: 0}
    m_Modifications:
    - target: {fileID: 4729984088506558, guid: 6606d3dcc5264a44eb71cb2324879c2d, type: 3}
      propertyPath: m_RootOrder
      value: 24
      objectReference: {fileID: 0}
    - target: {fileID: 4729984088506558, guid: 6606d3dcc5264a44eb71cb2324879c2d, type: 3}
      propertyPath: m_LocalPosition.x
      value: 0.929
      objectReference: {fileID: 0}
    - target: {fileID: 4729984088506558, guid: 6606d3dcc5264a44eb71cb2324879c2d, type: 3}
      propertyPath: m_LocalPosition.y
      value: 0
      objectReference: {fileID: 0}
    - target: {fileID: 4729984088506558, guid: 6606d3dcc5264a44eb71cb2324879c2d, type: 3}
      propertyPath: m_LocalPosition.z
      value: 0
      objectReference: {fileID: 0}
    - target: {fileID: 4729984088506558, guid: 6606d3dcc5264a44eb71cb2324879c2d, type: 3}
      propertyPath: m_LocalRotation.w
      value: 1
      objectReference: {fileID: 0}
    - target: {fileID: 4729984088506558, guid: 6606d3dcc5264a44eb71cb2324879c2d, type: 3}
      propertyPath: m_LocalRotation.x
      value: 0
      objectReference: {fileID: 0}
    - target: {fileID: 4729984088506558, guid: 6606d3dcc5264a44eb71cb2324879c2d, type: 3}
      propertyPath: m_LocalRotation.y
      value: 0
      objectReference: {fileID: 0}
    - target: {fileID: 4729984088506558, guid: 6606d3dcc5264a44eb71cb2324879c2d, type: 3}
      propertyPath: m_LocalRotation.z
      value: 0
      objectReference: {fileID: 0}
    m_RemovedComponents: []
  m_SourcePrefab: {fileID: 100100000, guid: 6606d3dcc5264a44eb71cb2324879c2d, type: 3}
--- !u!1001 &1475484041
PrefabInstance:
  m_ObjectHideFlags: 0
  serializedVersion: 2
  m_Modification:
    m_TransformParent: {fileID: 0}
    m_Modifications:
    - target: {fileID: 1237125483529390, guid: c267e75a40b7590439ccd259e06fbc37, type: 3}
      propertyPath: m_IsActive
      value: 1
      objectReference: {fileID: 0}
    - target: {fileID: 4784227117427376, guid: c267e75a40b7590439ccd259e06fbc37, type: 3}
      propertyPath: m_RootOrder
      value: 14
      objectReference: {fileID: 0}
    - target: {fileID: 4784227117427376, guid: c267e75a40b7590439ccd259e06fbc37, type: 3}
      propertyPath: m_LocalPosition.x
      value: -0.024
      objectReference: {fileID: 0}
    - target: {fileID: 4784227117427376, guid: c267e75a40b7590439ccd259e06fbc37, type: 3}
      propertyPath: m_LocalPosition.y
      value: 0
      objectReference: {fileID: 0}
    - target: {fileID: 4784227117427376, guid: c267e75a40b7590439ccd259e06fbc37, type: 3}
      propertyPath: m_LocalPosition.z
      value: 0
      objectReference: {fileID: 0}
    - target: {fileID: 4784227117427376, guid: c267e75a40b7590439ccd259e06fbc37, type: 3}
      propertyPath: m_LocalRotation.w
      value: 1
      objectReference: {fileID: 0}
    - target: {fileID: 4784227117427376, guid: c267e75a40b7590439ccd259e06fbc37, type: 3}
      propertyPath: m_LocalRotation.x
      value: 0
      objectReference: {fileID: 0}
    - target: {fileID: 4784227117427376, guid: c267e75a40b7590439ccd259e06fbc37, type: 3}
      propertyPath: m_LocalRotation.y
      value: 0
      objectReference: {fileID: 0}
    - target: {fileID: 4784227117427376, guid: c267e75a40b7590439ccd259e06fbc37, type: 3}
      propertyPath: m_LocalRotation.z
      value: 0
      objectReference: {fileID: 0}
    m_RemovedComponents: []
  m_SourcePrefab: {fileID: 100100000, guid: c267e75a40b7590439ccd259e06fbc37, type: 3}
--- !u!1001 &1700810984
PrefabInstance:
  m_ObjectHideFlags: 0
  serializedVersion: 2
  m_Modification:
    m_TransformParent: {fileID: 0}
    m_Modifications:
    - target: {fileID: 4557931158855950, guid: cc8eeb8d11ef6ca45840817706c4ac35, type: 3}
      propertyPath: m_RootOrder
      value: 21
      objectReference: {fileID: 0}
    - target: {fileID: 4557931158855950, guid: cc8eeb8d11ef6ca45840817706c4ac35, type: 3}
      propertyPath: m_LocalPosition.x
      value: 0.672
      objectReference: {fileID: 0}
    - target: {fileID: 4557931158855950, guid: cc8eeb8d11ef6ca45840817706c4ac35, type: 3}
      propertyPath: m_LocalPosition.y
      value: 0
      objectReference: {fileID: 0}
    - target: {fileID: 4557931158855950, guid: cc8eeb8d11ef6ca45840817706c4ac35, type: 3}
      propertyPath: m_LocalPosition.z
      value: 0
      objectReference: {fileID: 0}
    - target: {fileID: 4557931158855950, guid: cc8eeb8d11ef6ca45840817706c4ac35, type: 3}
      propertyPath: m_LocalRotation.w
      value: 1
      objectReference: {fileID: 0}
    - target: {fileID: 4557931158855950, guid: cc8eeb8d11ef6ca45840817706c4ac35, type: 3}
      propertyPath: m_LocalRotation.x
      value: 0
      objectReference: {fileID: 0}
    - target: {fileID: 4557931158855950, guid: cc8eeb8d11ef6ca45840817706c4ac35, type: 3}
      propertyPath: m_LocalRotation.y
      value: 0
      objectReference: {fileID: 0}
    - target: {fileID: 4557931158855950, guid: cc8eeb8d11ef6ca45840817706c4ac35, type: 3}
      propertyPath: m_LocalRotation.z
      value: 0
      objectReference: {fileID: 0}
    m_RemovedComponents: []
  m_SourcePrefab: {fileID: 100100000, guid: cc8eeb8d11ef6ca45840817706c4ac35, type: 3}
--- !u!1001 &1707655845
PrefabInstance:
  m_ObjectHideFlags: 0
  serializedVersion: 2
  m_Modification:
    m_TransformParent: {fileID: 0}
    m_Modifications:
    - target: {fileID: 1024203546624728, guid: 0a59b15581f4421439e48d7a1eaa6b43, type: 3}
      propertyPath: m_IsActive
      value: 1
      objectReference: {fileID: 0}
    - target: {fileID: 4099446503138014, guid: 0a59b15581f4421439e48d7a1eaa6b43, type: 3}
      propertyPath: m_RootOrder
      value: 6
      objectReference: {fileID: 0}
    - target: {fileID: 4099446503138014, guid: 0a59b15581f4421439e48d7a1eaa6b43, type: 3}
      propertyPath: m_LocalPosition.x
      value: -0.664
      objectReference: {fileID: 0}
    - target: {fileID: 4099446503138014, guid: 0a59b15581f4421439e48d7a1eaa6b43, type: 3}
      propertyPath: m_LocalPosition.y
      value: 0
      objectReference: {fileID: 0}
    - target: {fileID: 4099446503138014, guid: 0a59b15581f4421439e48d7a1eaa6b43, type: 3}
      propertyPath: m_LocalPosition.z
      value: 0
      objectReference: {fileID: 0}
    - target: {fileID: 4099446503138014, guid: 0a59b15581f4421439e48d7a1eaa6b43, type: 3}
      propertyPath: m_LocalRotation.w
      value: 1
      objectReference: {fileID: 0}
    - target: {fileID: 4099446503138014, guid: 0a59b15581f4421439e48d7a1eaa6b43, type: 3}
      propertyPath: m_LocalRotation.x
      value: 0
      objectReference: {fileID: 0}
    - target: {fileID: 4099446503138014, guid: 0a59b15581f4421439e48d7a1eaa6b43, type: 3}
      propertyPath: m_LocalRotation.y
      value: 0
      objectReference: {fileID: 0}
    - target: {fileID: 4099446503138014, guid: 0a59b15581f4421439e48d7a1eaa6b43, type: 3}
      propertyPath: m_LocalRotation.z
      value: 0
      objectReference: {fileID: 0}
    m_RemovedComponents: []
  m_SourcePrefab: {fileID: 100100000, guid: 0a59b15581f4421439e48d7a1eaa6b43, type: 3}
--- !u!1001 &1763786674
PrefabInstance:
  m_ObjectHideFlags: 0
  serializedVersion: 2
  m_Modification:
    m_TransformParent: {fileID: 0}
    m_Modifications:
    - target: {fileID: 4424024663648110, guid: 707238a926ad1bc4ba23e6d6c12cef48, type: 3}
      propertyPath: m_RootOrder
      value: 17
      objectReference: {fileID: 0}
    - target: {fileID: 4424024663648110, guid: 707238a926ad1bc4ba23e6d6c12cef48, type: 3}
      propertyPath: m_LocalPosition.x
      value: 0.319
      objectReference: {fileID: 0}
    - target: {fileID: 4424024663648110, guid: 707238a926ad1bc4ba23e6d6c12cef48, type: 3}
      propertyPath: m_LocalPosition.y
      value: 0
      objectReference: {fileID: 0}
    - target: {fileID: 4424024663648110, guid: 707238a926ad1bc4ba23e6d6c12cef48, type: 3}
      propertyPath: m_LocalPosition.z
      value: 0
      objectReference: {fileID: 0}
    - target: {fileID: 4424024663648110, guid: 707238a926ad1bc4ba23e6d6c12cef48, type: 3}
      propertyPath: m_LocalRotation.w
      value: 1
      objectReference: {fileID: 0}
    - target: {fileID: 4424024663648110, guid: 707238a926ad1bc4ba23e6d6c12cef48, type: 3}
      propertyPath: m_LocalRotation.x
      value: 0
      objectReference: {fileID: 0}
    - target: {fileID: 4424024663648110, guid: 707238a926ad1bc4ba23e6d6c12cef48, type: 3}
      propertyPath: m_LocalRotation.y
      value: 0
      objectReference: {fileID: 0}
    - target: {fileID: 4424024663648110, guid: 707238a926ad1bc4ba23e6d6c12cef48, type: 3}
      propertyPath: m_LocalRotation.z
      value: 0
      objectReference: {fileID: 0}
    m_RemovedComponents: []
  m_SourcePrefab: {fileID: 100100000, guid: 707238a926ad1bc4ba23e6d6c12cef48, type: 3}
--- !u!1001 &1764900995
PrefabInstance:
  m_ObjectHideFlags: 0
  serializedVersion: 2
  m_Modification:
    m_TransformParent: {fileID: 0}
    m_Modifications:
    - target: {fileID: 1701605989303408, guid: 222902f0ac7823c43bf673fdb207e370, type: 3}
      propertyPath: m_IsActive
      value: 1
      objectReference: {fileID: 0}
    - target: {fileID: 4238483567466648, guid: 222902f0ac7823c43bf673fdb207e370, type: 3}
      propertyPath: m_RootOrder
      value: 12
      objectReference: {fileID: 0}
    - target: {fileID: 4238483567466648, guid: 222902f0ac7823c43bf673fdb207e370, type: 3}
      propertyPath: m_LocalPosition.x
      value: -0.184
      objectReference: {fileID: 0}
    - target: {fileID: 4238483567466648, guid: 222902f0ac7823c43bf673fdb207e370, type: 3}
      propertyPath: m_LocalPosition.y
      value: 0
      objectReference: {fileID: 0}
    - target: {fileID: 4238483567466648, guid: 222902f0ac7823c43bf673fdb207e370, type: 3}
      propertyPath: m_LocalPosition.z
      value: 0
      objectReference: {fileID: 0}
    - target: {fileID: 4238483567466648, guid: 222902f0ac7823c43bf673fdb207e370, type: 3}
      propertyPath: m_LocalRotation.w
      value: 1
      objectReference: {fileID: 0}
    - target: {fileID: 4238483567466648, guid: 222902f0ac7823c43bf673fdb207e370, type: 3}
      propertyPath: m_LocalRotation.x
      value: 0
      objectReference: {fileID: 0}
    - target: {fileID: 4238483567466648, guid: 222902f0ac7823c43bf673fdb207e370, type: 3}
      propertyPath: m_LocalRotation.y
      value: 0
      objectReference: {fileID: 0}
    - target: {fileID: 4238483567466648, guid: 222902f0ac7823c43bf673fdb207e370, type: 3}
      propertyPath: m_LocalRotation.z
      value: 0
      objectReference: {fileID: 0}
    m_RemovedComponents: []
  m_SourcePrefab: {fileID: 100100000, guid: 222902f0ac7823c43bf673fdb207e370, type: 3}
--- !u!1001 &1770840848
PrefabInstance:
  m_ObjectHideFlags: 0
  serializedVersion: 2
  m_Modification:
    m_TransformParent: {fileID: 0}
    m_Modifications:
    - target: {fileID: 1331074251658978, guid: b9160a3181d48a74fa6074e202e497be, type: 3}
      propertyPath: m_IsActive
      value: 1
      objectReference: {fileID: 0}
    - target: {fileID: 4681403043790398, guid: b9160a3181d48a74fa6074e202e497be, type: 3}
      propertyPath: m_RootOrder
      value: 8
      objectReference: {fileID: 0}
    - target: {fileID: 4681403043790398, guid: b9160a3181d48a74fa6074e202e497be, type: 3}
      propertyPath: m_LocalPosition.x
      value: -0.504
      objectReference: {fileID: 0}
    - target: {fileID: 4681403043790398, guid: b9160a3181d48a74fa6074e202e497be, type: 3}
      propertyPath: m_LocalPosition.y
      value: 0
      objectReference: {fileID: 0}
    - target: {fileID: 4681403043790398, guid: b9160a3181d48a74fa6074e202e497be, type: 3}
      propertyPath: m_LocalPosition.z
      value: 0
      objectReference: {fileID: 0}
    - target: {fileID: 4681403043790398, guid: b9160a3181d48a74fa6074e202e497be, type: 3}
      propertyPath: m_LocalRotation.w
      value: 1
      objectReference: {fileID: 0}
    - target: {fileID: 4681403043790398, guid: b9160a3181d48a74fa6074e202e497be, type: 3}
      propertyPath: m_LocalRotation.x
      value: 0
      objectReference: {fileID: 0}
    - target: {fileID: 4681403043790398, guid: b9160a3181d48a74fa6074e202e497be, type: 3}
      propertyPath: m_LocalRotation.y
      value: 0
      objectReference: {fileID: 0}
    - target: {fileID: 4681403043790398, guid: b9160a3181d48a74fa6074e202e497be, type: 3}
      propertyPath: m_LocalRotation.z
      value: 0
      objectReference: {fileID: 0}
    m_RemovedComponents: []
  m_SourcePrefab: {fileID: 100100000, guid: b9160a3181d48a74fa6074e202e497be, type: 3}
--- !u!1001 &1789617947
PrefabInstance:
  m_ObjectHideFlags: 0
  serializedVersion: 2
  m_Modification:
    m_TransformParent: {fileID: 0}
    m_Modifications:
    - target: {fileID: 1074635415451268, guid: 32e2b716ba1bd954881c465451619b08, type: 3}
      propertyPath: m_IsActive
      value: 1
      objectReference: {fileID: 0}
    - target: {fileID: 4129789950624824, guid: 32e2b716ba1bd954881c465451619b08, type: 3}
      propertyPath: m_RootOrder
      value: 3
      objectReference: {fileID: 0}
    - target: {fileID: 4129789950624824, guid: 32e2b716ba1bd954881c465451619b08, type: 3}
      propertyPath: m_LocalPosition.x
      value: -0.904
      objectReference: {fileID: 0}
    - target: {fileID: 4129789950624824, guid: 32e2b716ba1bd954881c465451619b08, type: 3}
      propertyPath: m_LocalPosition.y
      value: 0
      objectReference: {fileID: 0}
    - target: {fileID: 4129789950624824, guid: 32e2b716ba1bd954881c465451619b08, type: 3}
      propertyPath: m_LocalPosition.z
      value: 0
      objectReference: {fileID: 0}
    - target: {fileID: 4129789950624824, guid: 32e2b716ba1bd954881c465451619b08, type: 3}
      propertyPath: m_LocalRotation.w
      value: 1
      objectReference: {fileID: 0}
    - target: {fileID: 4129789950624824, guid: 32e2b716ba1bd954881c465451619b08, type: 3}
      propertyPath: m_LocalRotation.x
      value: 0
      objectReference: {fileID: 0}
    - target: {fileID: 4129789950624824, guid: 32e2b716ba1bd954881c465451619b08, type: 3}
      propertyPath: m_LocalRotation.y
      value: 0
      objectReference: {fileID: 0}
    - target: {fileID: 4129789950624824, guid: 32e2b716ba1bd954881c465451619b08, type: 3}
      propertyPath: m_LocalRotation.z
      value: 0
      objectReference: {fileID: 0}
    m_RemovedComponents: []
  m_SourcePrefab: {fileID: 100100000, guid: 32e2b716ba1bd954881c465451619b08, type: 3}
--- !u!1001 &1978768518
PrefabInstance:
  m_ObjectHideFlags: 0
  serializedVersion: 2
  m_Modification:
    m_TransformParent: {fileID: 0}
    m_Modifications:
    - target: {fileID: 1616240793639112, guid: 1a3588c093ba8e74fa25f9822468fdb2, type: 3}
      propertyPath: m_IsActive
      value: 1
      objectReference: {fileID: 0}
    - target: {fileID: 4781685058434750, guid: 1a3588c093ba8e74fa25f9822468fdb2, type: 3}
      propertyPath: m_RootOrder
      value: 4
      objectReference: {fileID: 0}
    - target: {fileID: 4781685058434750, guid: 1a3588c093ba8e74fa25f9822468fdb2, type: 3}
      propertyPath: m_LocalPosition.x
      value: -0.824
      objectReference: {fileID: 0}
    - target: {fileID: 4781685058434750, guid: 1a3588c093ba8e74fa25f9822468fdb2, type: 3}
      propertyPath: m_LocalPosition.y
      value: 0
      objectReference: {fileID: 0}
    - target: {fileID: 4781685058434750, guid: 1a3588c093ba8e74fa25f9822468fdb2, type: 3}
      propertyPath: m_LocalPosition.z
      value: 0
      objectReference: {fileID: 0}
    - target: {fileID: 4781685058434750, guid: 1a3588c093ba8e74fa25f9822468fdb2, type: 3}
      propertyPath: m_LocalRotation.w
      value: 1
      objectReference: {fileID: 0}
    - target: {fileID: 4781685058434750, guid: 1a3588c093ba8e74fa25f9822468fdb2, type: 3}
      propertyPath: m_LocalRotation.x
      value: 0
      objectReference: {fileID: 0}
    - target: {fileID: 4781685058434750, guid: 1a3588c093ba8e74fa25f9822468fdb2, type: 3}
      propertyPath: m_LocalRotation.y
      value: 0
      objectReference: {fileID: 0}
    - target: {fileID: 4781685058434750, guid: 1a3588c093ba8e74fa25f9822468fdb2, type: 3}
      propertyPath: m_LocalRotation.z
      value: 0
      objectReference: {fileID: 0}
    m_RemovedComponents: []
  m_SourcePrefab: {fileID: 100100000, guid: 1a3588c093ba8e74fa25f9822468fdb2, type: 3}
--- !u!1001 &2053686794
PrefabInstance:
  m_ObjectHideFlags: 0
  serializedVersion: 2
  m_Modification:
    m_TransformParent: {fileID: 0}
    m_Modifications:
    - target: {fileID: 4841535863041346, guid: 7687015455c3198469fa6fdce8f980ef, type: 3}
      propertyPath: m_RootOrder
      value: 19
      objectReference: {fileID: 0}
    - target: {fileID: 4841535863041346, guid: 7687015455c3198469fa6fdce8f980ef, type: 3}
      propertyPath: m_LocalPosition.x
      value: 0.496
      objectReference: {fileID: 0}
    - target: {fileID: 4841535863041346, guid: 7687015455c3198469fa6fdce8f980ef, type: 3}
      propertyPath: m_LocalPosition.y
      value: 0
      objectReference: {fileID: 0}
    - target: {fileID: 4841535863041346, guid: 7687015455c3198469fa6fdce8f980ef, type: 3}
      propertyPath: m_LocalPosition.z
      value: 0
      objectReference: {fileID: 0}
    - target: {fileID: 4841535863041346, guid: 7687015455c3198469fa6fdce8f980ef, type: 3}
      propertyPath: m_LocalRotation.w
      value: 1
      objectReference: {fileID: 0}
    - target: {fileID: 4841535863041346, guid: 7687015455c3198469fa6fdce8f980ef, type: 3}
      propertyPath: m_LocalRotation.x
      value: 0
      objectReference: {fileID: 0}
    - target: {fileID: 4841535863041346, guid: 7687015455c3198469fa6fdce8f980ef, type: 3}
      propertyPath: m_LocalRotation.y
      value: 0
      objectReference: {fileID: 0}
    - target: {fileID: 4841535863041346, guid: 7687015455c3198469fa6fdce8f980ef, type: 3}
      propertyPath: m_LocalRotation.z
      value: 0
      objectReference: {fileID: 0}
    m_RemovedComponents: []
  m_SourcePrefab: {fileID: 100100000, guid: 7687015455c3198469fa6fdce8f980ef, type: 3}
--- !u!1001 &2070635672
PrefabInstance:
  m_ObjectHideFlags: 0
  serializedVersion: 2
  m_Modification:
    m_TransformParent: {fileID: 0}
    m_Modifications:
    - target: {fileID: 1150370041253966, guid: 4d5b4465b0d6b9e42baff27d66b0412f, type: 3}
      propertyPath: m_IsActive
      value: 1
      objectReference: {fileID: 0}
    - target: {fileID: 4384510184495542, guid: 4d5b4465b0d6b9e42baff27d66b0412f, type: 3}
      propertyPath: m_RootOrder
      value: 5
      objectReference: {fileID: 0}
    - target: {fileID: 4384510184495542, guid: 4d5b4465b0d6b9e42baff27d66b0412f, type: 3}
      propertyPath: m_LocalPosition.x
      value: -0.744
      objectReference: {fileID: 0}
    - target: {fileID: 4384510184495542, guid: 4d5b4465b0d6b9e42baff27d66b0412f, type: 3}
      propertyPath: m_LocalPosition.y
      value: 0
      objectReference: {fileID: 0}
    - target: {fileID: 4384510184495542, guid: 4d5b4465b0d6b9e42baff27d66b0412f, type: 3}
      propertyPath: m_LocalPosition.z
      value: 0
      objectReference: {fileID: 0}
    - target: {fileID: 4384510184495542, guid: 4d5b4465b0d6b9e42baff27d66b0412f, type: 3}
      propertyPath: m_LocalRotation.w
      value: 1
      objectReference: {fileID: 0}
    - target: {fileID: 4384510184495542, guid: 4d5b4465b0d6b9e42baff27d66b0412f, type: 3}
      propertyPath: m_LocalRotation.x
      value: 0
      objectReference: {fileID: 0}
    - target: {fileID: 4384510184495542, guid: 4d5b4465b0d6b9e42baff27d66b0412f, type: 3}
      propertyPath: m_LocalRotation.y
      value: 0
      objectReference: {fileID: 0}
    - target: {fileID: 4384510184495542, guid: 4d5b4465b0d6b9e42baff27d66b0412f, type: 3}
      propertyPath: m_LocalRotation.z
      value: 0
      objectReference: {fileID: 0}
    m_RemovedComponents: []
  m_SourcePrefab: {fileID: 100100000, guid: 4d5b4465b0d6b9e42baff27d66b0412f, type: 3}
